mtllib trafficLightGantry.mtl
o Traffic_Light_Gantry_Mesh
v 0.113017 0.075268 0.002782
v 0.003177 -0.002739 0.003560
v 0.003177 0.002308 0.003560
v -0.003489 0.002308 0.003560
v -0.003489 -0.002739 0.003560
v 0.003177 -0.002739 -0.003106
v 0.003177 0.002308 -0.003106
v -0.003489 -0.002739 -0.003106
v -0.003489 0.002308 -0.003106
v 0.001310 0.078239 0.001694
v 0.001310 0.078239 -0.001239
v -0.001624 0.078239 -0.001239
v -0.001624 0.078239 0.001694
v 0.001509 0.003808 0.001894
v -0.001823 0.003808 0.001894
v 0.001509 0.003808 -0.001439
v -0.001823 0.003808 -0.001439
v 0.001509 0.012596 0.001894
v -0.001823 0.012596 0.001894
v 0.001509 0.012596 -0.001439
v -0.001823 0.012596 -0.001439
v 0.001009 0.013046 0.001394
v -0.001323 0.013046 0.001394
v 0.001009 0.013046 -0.000939
v -0.001323 0.013046 -0.000939
v 0.001009 0.075258 0.001394
v 0.001009 0.077489 0.001394
v -0.001323 0.077489 0.001394
v -0.001323 0.075258 0.001394
v 0.001009 0.075258 -0.000939
v 0.001009 0.077489 -0.000939
v -0.001323 0.075258 -0.000939
v -0.001323 0.077489 -0.000939
v 0.001310 0.077489 0.001694
v -0.001624 0.077489 0.001694
v 0.001310 0.077489 -0.001239
v -0.001624 0.077489 -0.001239
v -0.001323 0.063756 0.001394
v 0.001009 0.063756 0.001394
v 0.001009 0.063756 -0.000939
v -0.001323 0.063756 -0.000939
v 0.002059 0.063756 0.002444
v 0.002059 0.065256 0.002444
v -0.002373 0.065256 0.002444
v -0.002373 0.063756 0.002444
v 0.002059 0.063756 -0.001989
v 0.002059 0.065256 -0.001989
v -0.002373 0.063756 -0.001989
v -0.002373 0.065256 -0.001989
v -0.001323 0.073008 0.001394
v -0.001323 0.065256 0.001394
v 0.001009 0.065256 0.001394
v 0.001009 0.073008 0.001394
v 0.001009 0.065256 -0.000939
v 0.001009 0.073008 -0.000939
v -0.001323 0.065256 -0.000939
v -0.001323 0.073008 -0.000939
v 0.002059 0.073008 0.002444
v 0.002059 0.075258 0.002444
v -0.002373 0.075258 0.002444
v -0.002373 0.073008 0.002444
v 0.002059 0.073008 -0.001989
v 0.002059 0.075258 -0.001989
v -0.002373 0.073008 -0.001989
v -0.002373 0.075258 -0.001989
v 0.112709 0.073475 0.000663
v 0.112637 0.074414 0.000663
v 0.001444 0.064932 0.000663
v 0.001516 0.063994 0.000663
v 0.014587 0.074317 0.000552
v 0.014587 0.074317 -0.000200
v 0.014587 0.065633 -0.000200
v 0.014587 0.065633 0.000552
v 0.001516 0.063994 -0.000278
v 0.001444 0.064932 -0.000278
v 0.112637 0.074414 -0.000278
v 0.112709 0.073475 -0.000278
v 0.015339 0.065633 -0.000200
v 0.015339 0.074317 -0.000200
v 0.113551 0.074823 -0.000480
v 0.113551 0.074823 0.000865
v 0.113551 0.073479 0.000865
v 0.113551 0.073479 -0.000480
v 0.015339 0.065633 0.000552
v 0.015339 0.074317 0.000552
v 0.001521 0.074823 0.000865
v 0.001521 0.073479 0.000865
v 0.001521 0.073479 -0.000480
v 0.001521 0.074823 -0.000480
v 0.043499 0.068055 0.000552
v 0.043499 0.068055 -0.000200
v 0.043499 0.074317 -0.000200
v 0.043499 0.074317 0.000552
v 0.042747 0.074317 0.000552
v 0.042747 0.074317 -0.000200
v 0.042747 0.068055 -0.000200
v 0.042747 0.068055 0.000552
v 0.076030 0.071165 0.000552
v 0.076030 0.071165 -0.000200
v 0.076030 0.074317 -0.000200
v 0.076030 0.074317 0.000552
v 0.075278 0.074317 0.000552
v 0.075278 0.074317 -0.000200
v 0.075278 0.071165 -0.000200
v 0.075278 0.071165 0.000552
vt 0.47504687 0.46004808
vt 0.42902887 0.5089244
vt 0.47504687 0.33126792
vt 0.47504687 0.38014427
vt 0.42902887 0.38014427
vt 0.42902887 0.33126792
vt 0.47504687 0.5244151
vt 0.42902887 0.5732914
vt 0.55409175 0.16369185
vt 0.20186634 0.38865253
vt 0.20186634 0.4538056
vt 0.21261607 0.2885878
vt 0.21261607 0.37316194
vt 0.18956132 0.2885878
vt 0.6561914 0.49958384
vt 0.6561914 0.53218347
vt 0.6953479 0.49417368
vt 0.6953479 0.51590675
vt 0.19802389 0.009294368
vt 0.68766296 0.3025525
vt 0.016147478 0.009294368
vt 0.59324825 0.29557014
vt 0.5755912 0.29866827
vt 0.59324825 0.27305096
vt 0.57714653 0.27305096
vt 0.17117241 0.10237677
vt 0.38987237 0.02325904
vt 0.26096702 0.6531952
vt 0.26096702 0.16211967
vt 0.31466997 0.6531952
vt 0.31466997 0.16211967
vt 0.67535794 0.16290577
vt 0.64544165 0.17765653
vt 0.6953479 0.36460742
vt 0.6646082 0.37935817
vt 0.5663968 0.6531952
vt 0.5663968 0.5779617
vt 0.5940259 0.6531952
vt 0.5679063 0.40881348
vt 0.5679063 0.49958384
vt 0.03069393 0.08378803
vt 0.122043826 0.043419957
vt 0.122043826 0.065153055
vt 0.40675175 0.21178211
vt 0.18956132 0.1861648
vt 0.40675175 0.18852307
vt 0.21261607 0.21876445
vt 0.18265404 0.21876445
vt 0.34229907 0.22186257
vt 0.76670784 0.87431794
vt 0.0 0.7912698
vt 0.7029871 0.6531952
vt 0.76670784 0.8991029
vt 7.7764055E-4 1.0
vt 1.0 0.13728845
vt 1.0 0.11324332
vt 0.23333791 0.11324332
vt 0.7029871 0.2621844
vt 0.77205986 0.7253306
vt 0.0 0.73855543
vt 0.77205986 0.7540461
vt 0.69150543 0.03412559
vt 0.6968574 0.09465458
vt 0.21796808 0.4538056
vt 0.42902887 0.6531952
vt 0.47504687 0.58882827
vt 0.28548557 0.0
usemtl Metal
s 1
f 2/1 3/1 4/2 5/2
f 6/3 7/4 3/5 2/6
f 8/7 9/7 7/8 6/8
f 5/4 4/1 9/2 8/5
f 10/9 11/9 12/9 13/9
f 3/10 14/10 15/10 4/10
f 7/11 16/11 14/10 3/10
f 9/11 17/11 16/11 7/11
f 4/10 15/10 17/11 9/11
f 14/12 18/13 19/10 15/14
f 16/1 20/7 18/7 14/1
f 17/14 21/10 20/10 16/14
f 15/3 19/4 21/4 17/3
f 18/15 22/15 23/15 19/15
f 20/16 24/16 22/15 18/15
f 21/16 25/16 24/16 20/16
f 19/15 23/15 25/16 21/16
f 26/17 27/18 28/18 29/17
f 30/19 31/19 27/19 26/19
f 32/20 33/20 31/20 30/20
f 29/21 28/21 33/21 32/21
f 27/22 34/22 35/23 28/23
f 31/24 36/24 34/22 27/22
f 33/25 37/25 36/24 31/24
f 28/23 35/23 37/25 33/25
f 34/26 10/26 13/26 35/26
f 36/27 11/27 10/27 34/27
f 37/26 12/26 11/26 36/26
f 35/20 13/20 12/22 37/22
f 38/28 23/29 22/29 39/28
f 39/30 22/31 24/31 40/30
f 40/28 24/29 25/29 41/28
f 41/30 25/31 23/31 38/30
f 42/32 43/32 44/33 45/33
f 46/34 47/34 43/35 42/35
f 48/17 49/17 47/15 46/15
f 45/34 44/34 49/35 48/35
f 50/36 51/37 52/37 53/36
f 53/38 52/16 54/16 55/38
f 55/39 54/23 56/23 57/39
f 57/40 56/39 51/39 50/40
f 58/41 59/41 60/41 61/41
f 62/42 63/43 59/43 58/42
f 64/41 65/41 63/41 62/41
f 61/42 60/43 65/41 64/21
f 39/44 42/44 45/44 38/44
f 51/45 44/45 43/29 52/29
f 40/46 46/46 42/44 39/44
f 52/29 43/29 47/47 54/47
f 41/46 48/46 46/46 40/46
f 54/47 47/47 49/48 56/48
f 38/44 45/44 48/46 41/46
f 56/48 49/48 44/45 51/45
f 53/44 58/44 61/49 50/49
f 29/45 60/45 59/45 26/45
f 55/46 62/46 58/44 53/44
f 26/45 59/45 63/48 30/48
f 57/31 64/31 62/46 55/46
f 30/48 63/48 65/48 32/48
f 50/49 61/49 64/31 57/31
f 32/48 65/48 60/45 29/45
f 66/50 67/50 68/51 69/51
f 70/52 71/52 72/18 73/18
f 74/53 75/53 76/54 77/54
f 77/55 66/55 69/29 74/29
f 67/56 76/55 75/29 68/57
f 78/58 72/58 71/20 79/20
f 80/18 81/18 82/18 83/18
f 73/32 84/32 85/58 70/58
f 82/59 81/59 86/60 87/60
f 88/61 89/61 80/51 83/51
f 83/59 82/59 87/60 88/60
f 81/59 80/59 89/60 86/60
f 90/62 91/62 92/63 93/63
f 94/64 95/64 96/13 97/13
f 91/34 96/34 95/17 92/17
f 97/17 90/17 93/18 94/18
f 84/32 78/32 79/58 85/58
f 5/65 8/65 6/66 2/66
f 98/67 99/67 100/67 101/67
f 102/67 103/67 104/67 105/67
f 99/67 104/67 103/67 100/67
f 105/67 98/67 101/67 102/67
